\babel@toc {dutch}{}
\contentsline {section}{\numberline {1}i3 Window Manager Controls}{4}{section.1}
\contentsline {section}{\numberline {2}suckless.org: dwm \& st}{5}{section.2}
\contentsline {section}{\numberline {3}Linux Basic Commands}{6}{section.3}
\contentsline {section}{\numberline {4}C++ in Linux}{9}{section.4}
\contentsline {subsection}{\numberline {4.1}Install C/C++ compiler and related tools}{9}{subsection.4.1}
\contentsline {subsection}{\numberline {4.2}Verify installation}{9}{subsection.4.2}
\contentsline {subsection}{\numberline {4.3}How to Compile and Run C/C++ program on Linux}{9}{subsection.4.3}
\contentsline {subsubsection}{\numberline {4.3.1}How do I compile the program on Linux?}{10}{subsubsection.4.3.1}
\contentsline {subsubsection}{\numberline {4.3.2}How do I run or execute the program I made on Linux?}{10}{subsubsection.4.3.2}
\contentsline {section}{\numberline {5}Mounting USB devices}{11}{section.5}
\contentsline {subsection}{\numberline {5.1}Dectecting USB Hard Drive}{11}{subsection.5.1}
\contentsline {subsection}{\numberline {5.2}Create a mount point}{11}{subsection.5.2}
\contentsline {subsection}{\numberline {5.3}Mount USB Drive}{11}{subsection.5.3}
\contentsline {subsection}{\numberline {5.4}Access USB Data}{12}{subsection.5.4}
\contentsline {subsection}{\numberline {5.5}Unmount USB}{12}{subsection.5.5}
\contentsline {section}{\numberline {6}Git}{13}{section.6}
\contentsline {subsection}{\numberline {6.1}Commandos}{13}{subsection.6.1}
\contentsline {section}{\numberline {7}Linux System Commands}{15}{section.7}
\contentsline {section}{\numberline {8}Package Managers Unix-like}{15}{section.8}
\contentsline {section}{\numberline {9}Users}{17}{section.9}
\contentsline {subsection}{\numberline {9.1}List current logged in Users}{17}{subsection.9.1}
\contentsline {subsection}{\numberline {9.2}Creating new Users}{17}{subsection.9.2}
\contentsline {subsection}{\numberline {9.3}Adding users to sudo}{17}{subsection.9.3}
\contentsline {subsection}{\numberline {9.4}Force logout Accounts}{18}{subsection.9.4}
\contentsline {subsection}{\numberline {9.5}Deleting an existing User}{19}{subsection.9.5}
\contentsline {section}{\numberline {10}Symbolic Link}{19}{section.10}
\contentsline {subsection}{\numberline {10.1}In Unix}{19}{subsection.10.1}
\contentsline {subsection}{\numberline {10.2}In Windows}{20}{subsection.10.2}
\contentsline {paragraph}{How to Create Symbolic Links with mklink}{20}{section*.2}
\contentsline {paragraph}{How to Create Symbolic Links with a Graphical Tool}{20}{section*.3}
\contentsline {paragraph}{How to Delete Symbolic Links}{21}{section*.4}
\contentsline {section}{\numberline {11}Arch\_Linux Setup}{22}{section.11}
\contentsline {subsection}{\numberline {11.1}Installation Guide (UEFI)}{22}{subsection.11.1}
\contentsline {subsection}{\numberline {11.2}Installing NetworkManager}{24}{subsection.11.2}
\contentsline {subsection}{\numberline {11.3}Installing audio}{24}{subsection.11.3}
\contentsline {subsection}{\numberline {11.4}Bluetooth}{25}{subsection.11.4}
\contentsline {section}{\numberline {12}Python}{25}{section.12}
\contentsline {section}{\numberline {13}USB Tethering}{25}{section.13}
